[{"line":1,"elements":[{"line":14,"name":"DDT test case","description":"","id":"ddt-test-case","type":"scenario","keyword":"Scenario Outline","steps":[{"name":"url \"http:\/\/reqres.in\"","result":{"duration":2206100,"status":"passed"},"match":{"location":"karate","arguments":[]},"keyword":"Given","line":6,"doc_string":{"content_type":"","value":"16:51:30.664 skipping bootstrap configuration: could not find or read file: classpath:karate-config.js","line":6}},{"name":"path \"\/api\/users?page=1\"","result":{"duration":1708700,"status":"passed"},"match":{"location":"karate","arguments":[]},"keyword":"And","line":7},{"name":"method GET","result":{"duration":1338580800,"status":"passed"},"match":{"location":"karate","arguments":[]},"keyword":"When","line":8,"doc_string":{"content_type":"","value":"16:51:31.039 request:\n1 > GET http:\/\/reqres.in\/api\/users%3Fpage=1\n1 > Accept-Encoding: gzip,deflate\n1 > Connection: Keep-Alive\n1 > Host: reqres.in\n1 > User-Agent: Apache-HttpClient\/4.5.12 (Java\/1.8.0_251)\n\n16:51:31.242 response time in milliseconds: 200.81\n1 < 301\n1 < CF-RAY: 5fb4aa2f7b12173c-SIN\n1 < Cache-Control: max-age=3600\n1 < Connection: keep-alive\n1 < Date: Wed, 02 Dec 2020 11:21:30 GMT\n1 < Expires: Wed, 02 Dec 2020 12:21:30 GMT\n1 < Location: https:\/\/reqres.in\/api\/users%3Fpage=1\n1 < NEL: {\"report_to\":\"cf-nel\",\"max_age\":604800}\n1 < Report-To: {\"endpoints\":[{\"url\":\"https:\\\/\\\/a.nel.cloudflare.com\\\/report?s=FYn8SQ%2Bv39u5s8jm6%2FZ1UDmp9yWjPwYXKsaXUgbjrIhESi3jlWQH7J1JU6WjN57jhZkmuZ9ZLIPF4ibPP4evcOGjOYiRA%2FW173k%3D\"}],\"group\":\"cf-nel\",\"max_age\":604800}\n1 < Server: cloudflare\n1 < Transfer-Encoding: chunked\n1 < Vary: Accept-Encoding\n1 < cf-request-id: 06c4c8b1aa0000173cc2be4000000001\n\n16:51:31.258 request:\n2 > GET http:\/\/reqres.in\/api\/users%3Fpage=1\n2 > Accept-Encoding: gzip,deflate\n2 > Connection: Keep-Alive\n2 > Host: reqres.in\n2 > User-Agent: Apache-HttpClient\/4.5.12 (Java\/1.8.0_251)\n\n16:51:31.992 response time in milliseconds: 736.98\n2 < 200\n2 < CF-Cache-Status: MISS\n2 < CF-RAY: 5fb4aa31eb001a15-SIN\n2 < Cache-Control: max-age=14400\n2 < Connection: keep-alive\n2 < Content-Type: application\/json; charset=utf-8\n2 < Date: Wed, 02 Dec 2020 11:21:31 GMT\n2 < Expect-CT: max-age=604800, report-uri=\"https:\/\/report-uri.cloudflare.com\/cdn-cgi\/beacon\/expect-ct\"\n2 < NEL: {\"report_to\":\"cf-nel\",\"max_age\":604800}\n2 < Report-To: {\"endpoints\":[{\"url\":\"https:\\\/\\\/a.nel.cloudflare.com\\\/report?s=psLZ8KvDk8%2Ffi60Eri5dnWabwArucOh%2FISGenOw46NJPTFJzAgzVDi505M8w3DRCy9TRSaLnHxctNwzyKS9shWK7s4wuenJsnP8%3D\"}],\"group\":\"cf-nel\",\"max_age\":604800}\n2 < Server: cloudflare\n2 < Set-Cookie: __cfduid=dfc4b958669085174205d7f9144765b9d1606908091; expires=Fri, 01-Jan-21 11:21:31 GMT; path=\/; domain=.reqres.in; HttpOnly; SameSite=Lax; Secure\n2 < Transfer-Encoding: chunked\n2 < Vary: Accept-Encoding\n2 < access-control-allow-origin: *\n2 < cf-request-id: 06c4c8b33600001a15a6055000000001\n2 < etag: W\/\"2c1-N6Rqerxquq2kgQhL51EiSg4x0R8\"\n2 < via: 1.1 vegur\n2 < x-powered-by: Express\n{\"page\":1,\"per_page\":6,\"total\":12,\"total_pages\":2,\"data\":[{\"id\":1,\"name\":\"cerulean\",\"year\":2000,\"color\":\"#98B2D1\",\"pantone_value\":\"15-4020\"},{\"id\":2,\"name\":\"fuchsia rose\",\"year\":2001,\"color\":\"#C74375\",\"pantone_value\":\"17-2031\"},{\"id\":3,\"name\":\"true red\",\"year\":2002,\"color\":\"#BF1932\",\"pantone_value\":\"19-1664\"},{\"id\":4,\"name\":\"aqua sky\",\"year\":2003,\"color\":\"#7BC4C4\",\"pantone_value\":\"14-4811\"},{\"id\":5,\"name\":\"tigerlily\",\"year\":2004,\"color\":\"#E2583E\",\"pantone_value\":\"17-1456\"},{\"id\":6,\"name\":\"blue turquoise\",\"year\":2005,\"color\":\"#53B0AE\",\"pantone_value\":\"15-5217\"}],\"support\":{\"url\":\"https:\/\/reqres.in\/#support-heading\",\"text\":\"To keep ReqRes free, contributions towards server costs are appreciated!\"}}","line":8}},{"name":"status 200","result":{"duration":11400,"status":"passed"},"match":{"location":"karate","arguments":[]},"keyword":"Then","line":9},{"name":"match response.page == \"##\"","result":{"duration":12355800,"status":"passed"},"match":{"location":"karate","arguments":[]},"keyword":"And","line":10}],"tags":[{"name":"@ddt","line":4}]},{"line":15,"name":"DDT test case","description":"","id":"ddt-test-case","type":"scenario","keyword":"Scenario Outline","steps":[{"name":"url \"http:\/\/reqres.in\"","result":{"duration":341600,"status":"passed"},"match":{"location":"karate","arguments":[]},"keyword":"Given","line":6,"doc_string":{"content_type":"","value":"16:51:32.039 skipping bootstrap configuration: could not find or read file: classpath:karate-config.js","line":6}},{"name":"path \"\/api\/users?page=2\"","result":{"duration":1860900,"status":"passed"},"match":{"location":"karate","arguments":[]},"keyword":"And","line":7},{"name":"method GET","result":{"duration":286643500,"status":"passed"},"match":{"location":"karate","arguments":[]},"keyword":"When","line":8,"doc_string":{"content_type":"","value":"16:51:32.055 request:\n1 > GET http:\/\/reqres.in\/api\/users%3Fpage=2\n1 > Accept-Encoding: gzip,deflate\n1 > Connection: Keep-Alive\n1 > Host: reqres.in\n1 > User-Agent: Apache-HttpClient\/4.5.12 (Java\/1.8.0_251)\n\n16:51:32.149 response time in milliseconds: 106.16\n1 < 301\n1 < CF-RAY: 5fb4aa356a92e24f-SIN\n1 < Cache-Control: max-age=3600\n1 < Connection: keep-alive\n1 < Date: Wed, 02 Dec 2020 11:21:31 GMT\n1 < Expires: Wed, 02 Dec 2020 12:21:31 GMT\n1 < Location: https:\/\/reqres.in\/api\/users%3Fpage=2\n1 < NEL: {\"report_to\":\"cf-nel\",\"max_age\":604800}\n1 < Report-To: {\"endpoints\":[{\"url\":\"https:\\\/\\\/a.nel.cloudflare.com\\\/report?s=qzsnl73I0oUVWmcUoGR%2Fsh1bwOdJTa6KFIxEGP%2FP25Dqb%2BgatuDqUddbPNMw%2FUvnIM08o3sWSvUQWaWM3dXFdkHLCQkm%2FnMbckc%3D\"}],\"group\":\"cf-nel\",\"max_age\":604800}\n1 < Server: cloudflare\n1 < Transfer-Encoding: chunked\n1 < Vary: Accept-Encoding\n1 < cf-request-id: 06c4c8b5650000e24f5b8f7000000001\n\n16:51:32.149 request:\n2 > GET http:\/\/reqres.in\/api\/users%3Fpage=2\n2 > Accept-Encoding: gzip,deflate\n2 > Connection: Keep-Alive\n2 > Host: reqres.in\n2 > User-Agent: Apache-HttpClient\/4.5.12 (Java\/1.8.0_251)\n\n16:51:32.336 response time in milliseconds: 172.97\n2 < 200\n2 < Access-Control-Allow-Origin: *\n2 < Age: 2329\n2 < CF-Cache-Status: HIT\n2 < CF-RAY: 5fb4aa367c79dd42-SIN\n2 < Cache-Control: max-age=14400\n2 < Connection: keep-alive\n2 < Content-Type: application\/json; charset=utf-8\n2 < Date: Wed, 02 Dec 2020 11:21:31 GMT\n2 < Etag: W\/\"2c1-N6Rqerxquq2kgQhL51EiSg4x0R8\"\n2 < Expect-CT: max-age=604800, report-uri=\"https:\/\/report-uri.cloudflare.com\/cdn-cgi\/beacon\/expect-ct\"\n2 < NEL: {\"report_to\":\"cf-nel\",\"max_age\":604800}\n2 < Report-To: {\"endpoints\":[{\"url\":\"https:\\\/\\\/a.nel.cloudflare.com\\\/report?s=WDytYOYt2WrQMEXvlFLqSdbnBpI6MG%2FflOMUr0abRQO%2BshslbbHRZVQhbY787oNlNFyoP53U5Or8%2FrAG58%2Fp0JCP6II%2FBRlhljU%3D\"}],\"group\":\"cf-nel\",\"max_age\":604800}\n2 < Server: cloudflare\n2 < Set-Cookie: __cfduid=db72614e58644c386e34297956655f03a1606908091; expires=Fri, 01-Jan-21 11:21:31 GMT; path=\/; domain=.reqres.in; HttpOnly; SameSite=Lax; Secure\n2 < Transfer-Encoding: chunked\n2 < Vary: Accept-Encoding\n2 < Via: 1.1 vegur\n2 < X-Powered-By: Express\n2 < cf-request-id: 06c4c8b6100000dd425117e000000001\n{\"page\":1,\"per_page\":6,\"total\":12,\"total_pages\":2,\"data\":[{\"id\":1,\"name\":\"cerulean\",\"year\":2000,\"color\":\"#98B2D1\",\"pantone_value\":\"15-4020\"},{\"id\":2,\"name\":\"fuchsia rose\",\"year\":2001,\"color\":\"#C74375\",\"pantone_value\":\"17-2031\"},{\"id\":3,\"name\":\"true red\",\"year\":2002,\"color\":\"#BF1932\",\"pantone_value\":\"19-1664\"},{\"id\":4,\"name\":\"aqua sky\",\"year\":2003,\"color\":\"#7BC4C4\",\"pantone_value\":\"14-4811\"},{\"id\":5,\"name\":\"tigerlily\",\"year\":2004,\"color\":\"#E2583E\",\"pantone_value\":\"17-1456\"},{\"id\":6,\"name\":\"blue turquoise\",\"year\":2005,\"color\":\"#53B0AE\",\"pantone_value\":\"15-5217\"}],\"support\":{\"url\":\"https:\/\/reqres.in\/#support-heading\",\"text\":\"To keep ReqRes free, contributions towards server costs are appreciated!\"}}","line":8}},{"name":"status 200","result":{"duration":20200,"status":"passed"},"match":{"location":"karate","arguments":[]},"keyword":"Then","line":9},{"name":"match response.page == \"##\"","result":{"duration":844600,"status":"passed"},"match":{"location":"karate","arguments":[]},"keyword":"And","line":10}],"tags":[{"name":"@ddt","line":4}]},{"line":16,"name":"DDT test case","description":"","id":"ddt-test-case","type":"scenario","keyword":"Scenario Outline","steps":[{"name":"url \"http:\/\/reqres.in\"","result":{"duration":231800,"status":"passed"},"match":{"location":"karate","arguments":[]},"keyword":"Given","line":6,"doc_string":{"content_type":"","value":"16:51:32.352 skipping bootstrap configuration: could not find or read file: classpath:karate-config.js","line":6}},{"name":"path \"\/api\/users?page=3\"","result":{"duration":2582800,"status":"passed"},"match":{"location":"karate","arguments":[]},"keyword":"And","line":7},{"name":"method GET","result":{"duration":281878200,"status":"passed"},"match":{"location":"karate","arguments":[]},"keyword":"When","line":8,"doc_string":{"content_type":"","value":"16:51:32.352 request:\n1 > GET http:\/\/reqres.in\/api\/users%3Fpage=3\n1 > Accept-Encoding: gzip,deflate\n1 > Connection: Keep-Alive\n1 > Host: reqres.in\n1 > User-Agent: Apache-HttpClient\/4.5.12 (Java\/1.8.0_251)\n\n16:51:32.461 response time in milliseconds: 105.03\n1 < 301\n1 < CF-RAY: 5fb4aa375c6218ec-SIN\n1 < Cache-Control: max-age=3600\n1 < Connection: keep-alive\n1 < Date: Wed, 02 Dec 2020 11:21:32 GMT\n1 < Expires: Wed, 02 Dec 2020 12:21:32 GMT\n1 < Location: https:\/\/reqres.in\/api\/users%3Fpage=3\n1 < NEL: {\"report_to\":\"cf-nel\",\"max_age\":604800}\n1 < Report-To: {\"endpoints\":[{\"url\":\"https:\\\/\\\/a.nel.cloudflare.com\\\/report?s=E%2BimjPX15gJXbGnprLFtUj8Xlgmezjkku5yLYf8gu8MptpfL0tGPAPz3YQKzbOfkYl5pN9UNqUkVbHD5ZJOf5NTob7Xk5Q%2Bmn1s%3D\"}],\"group\":\"cf-nel\",\"max_age\":604800}\n1 < Server: cloudflare\n1 < Transfer-Encoding: chunked\n1 < Vary: Accept-Encoding\n1 < cf-request-id: 06c4c8b695000018ecacb48000000001\n\n16:51:32.461 request:\n2 > GET http:\/\/reqres.in\/api\/users%3Fpage=3\n2 > Accept-Encoding: gzip,deflate\n2 > Connection: Keep-Alive\n2 > Host: reqres.in\n2 > User-Agent: Apache-HttpClient\/4.5.12 (Java\/1.8.0_251)\n\n16:51:32.633 response time in milliseconds: 172.17\n2 < 200\n2 < Access-Control-Allow-Origin: *\n2 < Age: 926\n2 < CF-Cache-Status: HIT\n2 < CF-RAY: 5fb4aa386cb3dcfe-SIN\n2 < Cache-Control: max-age=14400\n2 < Connection: keep-alive\n2 < Content-Type: application\/json; charset=utf-8\n2 < Date: Wed, 02 Dec 2020 11:21:32 GMT\n2 < Etag: W\/\"2c1-N6Rqerxquq2kgQhL51EiSg4x0R8\"\n2 < Expect-CT: max-age=604800, report-uri=\"https:\/\/report-uri.cloudflare.com\/cdn-cgi\/beacon\/expect-ct\"\n2 < NEL: {\"report_to\":\"cf-nel\",\"max_age\":604800}\n2 < Report-To: {\"endpoints\":[{\"url\":\"https:\\\/\\\/a.nel.cloudflare.com\\\/report?s=s6gGTIlW%2BMeUBA%2Fcqb7E9211IZd3qc26tgzUs1woQuDaRr%2Bcez2eBT%2BG3Ox5F6oGdUhmi3bCA5ZmgQexg2yeaeY5PJlvla99cwo%3D\"}],\"group\":\"cf-nel\",\"max_age\":604800}\n2 < Server: cloudflare\n2 < Set-Cookie: __cfduid=d0fc3e42c3ada57076231b30282efed901606908092; expires=Fri, 01-Jan-21 11:21:32 GMT; path=\/; domain=.reqres.in; HttpOnly; SameSite=Lax; Secure\n2 < Transfer-Encoding: chunked\n2 < Vary: Accept-Encoding\n2 < Via: 1.1 vegur\n2 < X-Powered-By: Express\n2 < cf-request-id: 06c4c8b73d0000dcfebc093000000001\n{\"page\":1,\"per_page\":6,\"total\":12,\"total_pages\":2,\"data\":[{\"id\":1,\"name\":\"cerulean\",\"year\":2000,\"color\":\"#98B2D1\",\"pantone_value\":\"15-4020\"},{\"id\":2,\"name\":\"fuchsia rose\",\"year\":2001,\"color\":\"#C74375\",\"pantone_value\":\"17-2031\"},{\"id\":3,\"name\":\"true red\",\"year\":2002,\"color\":\"#BF1932\",\"pantone_value\":\"19-1664\"},{\"id\":4,\"name\":\"aqua sky\",\"year\":2003,\"color\":\"#7BC4C4\",\"pantone_value\":\"14-4811\"},{\"id\":5,\"name\":\"tigerlily\",\"year\":2004,\"color\":\"#E2583E\",\"pantone_value\":\"17-1456\"},{\"id\":6,\"name\":\"blue turquoise\",\"year\":2005,\"color\":\"#53B0AE\",\"pantone_value\":\"15-5217\"}],\"support\":{\"url\":\"https:\/\/reqres.in\/#support-heading\",\"text\":\"To keep ReqRes free, contributions towards server costs are appreciated!\"}}","line":8}},{"name":"status 200","result":{"duration":6400,"status":"passed"},"match":{"location":"karate","arguments":[]},"keyword":"Then","line":9},{"name":"match response.page == \"##\"","result":{"duration":314800,"status":"passed"},"match":{"location":"karate","arguments":[]},"keyword":"And","line":10}],"tags":[{"name":"@ddt","line":4}]},{"line":17,"name":"DDT test case","description":"","id":"ddt-test-case","type":"scenario","keyword":"Scenario Outline","steps":[{"name":"url \"http:\/\/reqres.in\"","result":{"duration":196700,"status":"passed"},"match":{"location":"karate","arguments":[]},"keyword":"Given","line":6,"doc_string":{"content_type":"","value":"16:51:32.633 skipping bootstrap configuration: could not find or read file: classpath:karate-config.js","line":6}},{"name":"path \"\/api\/users?page=4\"","result":{"duration":2020800,"status":"passed"},"match":{"location":"karate","arguments":[]},"keyword":"And","line":7},{"name":"method GET","result":{"duration":661024800,"status":"passed"},"match":{"location":"karate","arguments":[]},"keyword":"When","line":8,"doc_string":{"content_type":"","value":"16:51:32.649 request:\n1 > GET http:\/\/reqres.in\/api\/users%3Fpage=4\n1 > Accept-Encoding: gzip,deflate\n1 > Connection: Keep-Alive\n1 > Host: reqres.in\n1 > User-Agent: Apache-HttpClient\/4.5.12 (Java\/1.8.0_251)\n\n16:51:32.742 response time in milliseconds: 103.12\n1 < 301\n1 < CF-RAY: 5fb4aa392ca80193-SIN\n1 < Cache-Control: max-age=3600\n1 < Connection: keep-alive\n1 < Date: Wed, 02 Dec 2020 11:21:32 GMT\n1 < Expires: Wed, 02 Dec 2020 12:21:32 GMT\n1 < Location: https:\/\/reqres.in\/api\/users%3Fpage=4\n1 < NEL: {\"report_to\":\"cf-nel\",\"max_age\":604800}\n1 < Report-To: {\"endpoints\":[{\"url\":\"https:\\\/\\\/a.nel.cloudflare.com\\\/report?s=3uGxPt0kvsL5bRpKiIpQHlIyzAEBsB6dqOgSMecraGNC90X3wXRC2JaQ3XB5Pk50IMJ25oQVabJRsBEwQs9twoEMfunOr5fVAaQ%3D\"}],\"group\":\"cf-nel\",\"max_age\":604800}\n1 < Server: cloudflare\n1 < Transfer-Encoding: chunked\n1 < Vary: Accept-Encoding\n1 < cf-request-id: 06c4c8b7b900000193e22b2000000001\n\n16:51:32.742 request:\n2 > GET http:\/\/reqres.in\/api\/users%3Fpage=4\n2 > Accept-Encoding: gzip,deflate\n2 > Connection: Keep-Alive\n2 > Host: reqres.in\n2 > User-Agent: Apache-HttpClient\/4.5.12 (Java\/1.8.0_251)\n\n16:51:33.305 response time in milliseconds: 553.89\n2 < 200\n2 < Access-Control-Allow-Origin: *\n2 < CF-Cache-Status: MISS\n2 < CF-RAY: 5fb4aa3a1b251728-SIN\n2 < Cache-Control: max-age=14400\n2 < Connection: keep-alive\n2 < Content-Type: application\/json; charset=utf-8\n2 < Date: Wed, 02 Dec 2020 11:21:32 GMT\n2 < Etag: W\/\"2c1-N6Rqerxquq2kgQhL51EiSg4x0R8\"\n2 < Expect-CT: max-age=604800, report-uri=\"https:\/\/report-uri.cloudflare.com\/cdn-cgi\/beacon\/expect-ct\"\n2 < NEL: {\"report_to\":\"cf-nel\",\"max_age\":604800}\n2 < Report-To: {\"endpoints\":[{\"url\":\"https:\\\/\\\/a.nel.cloudflare.com\\\/report?s=qe0M%2BU7NfX%2FbZzm7sfjpIgcN3GmvrVVv0IreCLZwVJQ7TDzsxvJHn3IVsFmkY660rksK3ZQMe4SsoWNi8%2BYObkxHmC9tBppc0J4%3D\"}],\"group\":\"cf-nel\",\"max_age\":604800}\n2 < Server: cloudflare\n2 < Set-Cookie: __cfduid=dee47582395fa1abedb7b370a3d10da791606908092; expires=Fri, 01-Jan-21 11:21:32 GMT; path=\/; domain=.reqres.in; HttpOnly; SameSite=Lax; Secure\n2 < Transfer-Encoding: chunked\n2 < Vary: Accept-Encoding\n2 < Via: 1.1 vegur\n2 < X-Powered-By: Express\n2 < cf-request-id: 06c4c8b851000017284d0f0000000001\n{\"page\":1,\"per_page\":6,\"total\":12,\"total_pages\":2,\"data\":[{\"id\":1,\"name\":\"cerulean\",\"year\":2000,\"color\":\"#98B2D1\",\"pantone_value\":\"15-4020\"},{\"id\":2,\"name\":\"fuchsia rose\",\"year\":2001,\"color\":\"#C74375\",\"pantone_value\":\"17-2031\"},{\"id\":3,\"name\":\"true red\",\"year\":2002,\"color\":\"#BF1932\",\"pantone_value\":\"19-1664\"},{\"id\":4,\"name\":\"aqua sky\",\"year\":2003,\"color\":\"#7BC4C4\",\"pantone_value\":\"14-4811\"},{\"id\":5,\"name\":\"tigerlily\",\"year\":2004,\"color\":\"#E2583E\",\"pantone_value\":\"17-1456\"},{\"id\":6,\"name\":\"blue turquoise\",\"year\":2005,\"color\":\"#53B0AE\",\"pantone_value\":\"15-5217\"}],\"support\":{\"url\":\"https:\/\/reqres.in\/#support-heading\",\"text\":\"To keep ReqRes free, contributions towards server costs are appreciated!\"}}","line":8}},{"name":"status 200","result":{"duration":6800,"status":"passed"},"match":{"location":"karate","arguments":[]},"keyword":"Then","line":9},{"name":"match response.page == \"##\"","result":{"duration":260700,"status":"passed"},"match":{"location":"karate","arguments":[]},"keyword":"And","line":10}],"tags":[{"name":"@ddt","line":4}]},{"line":18,"name":"DDT test case","description":"","id":"ddt-test-case","type":"scenario","keyword":"Scenario Outline","steps":[{"name":"url \"http:\/\/reqres.in\"","result":{"duration":144800,"status":"passed"},"match":{"location":"karate","arguments":[]},"keyword":"Given","line":6,"doc_string":{"content_type":"","value":"16:51:33.305 skipping bootstrap configuration: could not find or read file: classpath:karate-config.js","line":6}},{"name":"path \"\/api\/users?page=5\"","result":{"duration":1714400,"status":"passed"},"match":{"location":"karate","arguments":[]},"keyword":"And","line":7},{"name":"method GET","result":{"duration":672285500,"status":"passed"},"match":{"location":"karate","arguments":[]},"keyword":"When","line":8,"doc_string":{"content_type":"","value":"16:51:33.305 request:\n1 > GET http:\/\/reqres.in\/api\/users%3Fpage=5\n1 > Accept-Encoding: gzip,deflate\n1 > Connection: Keep-Alive\n1 > Host: reqres.in\n1 > User-Agent: Apache-HttpClient\/4.5.12 (Java\/1.8.0_251)\n\n16:51:33.414 response time in milliseconds: 102.42\n1 < 301\n1 < CF-RAY: 5fb4aa3d5dcd17ab-SIN\n1 < Cache-Control: max-age=3600\n1 < Connection: keep-alive\n1 < Date: Wed, 02 Dec 2020 11:21:33 GMT\n1 < Expires: Wed, 02 Dec 2020 12:21:33 GMT\n1 < Location: https:\/\/reqres.in\/api\/users%3Fpage=5\n1 < NEL: {\"report_to\":\"cf-nel\",\"max_age\":604800}\n1 < Report-To: {\"endpoints\":[{\"url\":\"https:\\\/\\\/a.nel.cloudflare.com\\\/report?s=nNaurq74WrMpgNT5VJ9CMrD1d56nk%2FFlPgC7BNRqVvbHUMwmIViXQP%2BuCLSUXwkNnOhTu4jzWBHDF5HrWJrqHMEgiaNSSKZ1Q2A%3D\"}],\"group\":\"cf-nel\",\"max_age\":604800}\n1 < Server: cloudflare\n1 < Transfer-Encoding: chunked\n1 < Vary: Accept-Encoding\n1 < cf-request-id: 06c4c8ba52000017ab48191000000001\n\n16:51:33.414 request:\n2 > GET http:\/\/reqres.in\/api\/users%3Fpage=5\n2 > Accept-Encoding: gzip,deflate\n2 > Connection: Keep-Alive\n2 > Host: reqres.in\n2 > User-Agent: Apache-HttpClient\/4.5.12 (Java\/1.8.0_251)\n\n16:51:33.977 response time in milliseconds: 565.29\n2 < 200\n2 < Access-Control-Allow-Origin: *\n2 < CF-Cache-Status: MISS\n2 < CF-RAY: 5fb4aa3e4a2101b0-SIN\n2 < Cache-Control: max-age=14400\n2 < Connection: keep-alive\n2 < Content-Type: application\/json; charset=utf-8\n2 < Date: Wed, 02 Dec 2020 11:21:33 GMT\n2 < Etag: W\/\"2c1-N6Rqerxquq2kgQhL51EiSg4x0R8\"\n2 < Expect-CT: max-age=604800, report-uri=\"https:\/\/report-uri.cloudflare.com\/cdn-cgi\/beacon\/expect-ct\"\n2 < NEL: {\"report_to\":\"cf-nel\",\"max_age\":604800}\n2 < Report-To: {\"endpoints\":[{\"url\":\"https:\\\/\\\/a.nel.cloudflare.com\\\/report?s=NfHMUHisid1kSygov%2BEGUDypqX3SWPkp6hkP49WJpMY6ui1hY2BcuWNpZp0fZJyDr9sUJeTCkqsBF%2BPglsDo1g2fpjUeYnjyb24%3D\"}],\"group\":\"cf-nel\",\"max_age\":604800}\n2 < Server: cloudflare\n2 < Set-Cookie: __cfduid=d536159297dfb91ce7717dbff152a967a1606908093; expires=Fri, 01-Jan-21 11:21:33 GMT; path=\/; domain=.reqres.in; HttpOnly; SameSite=Lax; Secure\n2 < Transfer-Encoding: chunked\n2 < Vary: Accept-Encoding\n2 < Via: 1.1 vegur\n2 < X-Powered-By: Express\n2 < cf-request-id: 06c4c8baf1000001b07e9df000000001\n{\"page\":1,\"per_page\":6,\"total\":12,\"total_pages\":2,\"data\":[{\"id\":1,\"name\":\"cerulean\",\"year\":2000,\"color\":\"#98B2D1\",\"pantone_value\":\"15-4020\"},{\"id\":2,\"name\":\"fuchsia rose\",\"year\":2001,\"color\":\"#C74375\",\"pantone_value\":\"17-2031\"},{\"id\":3,\"name\":\"true red\",\"year\":2002,\"color\":\"#BF1932\",\"pantone_value\":\"19-1664\"},{\"id\":4,\"name\":\"aqua sky\",\"year\":2003,\"color\":\"#7BC4C4\",\"pantone_value\":\"14-4811\"},{\"id\":5,\"name\":\"tigerlily\",\"year\":2004,\"color\":\"#E2583E\",\"pantone_value\":\"17-1456\"},{\"id\":6,\"name\":\"blue turquoise\",\"year\":2005,\"color\":\"#53B0AE\",\"pantone_value\":\"15-5217\"}],\"support\":{\"url\":\"https:\/\/reqres.in\/#support-heading\",\"text\":\"To keep ReqRes free, contributions towards server costs are appreciated!\"}}","line":8}},{"name":"status 200","result":{"duration":6500,"status":"passed"},"match":{"location":"karate","arguments":[]},"keyword":"Then","line":9},{"name":"match response.page == \"##\"","result":{"duration":293200,"status":"passed"},"match":{"location":"karate","arguments":[]},"keyword":"And","line":10}],"tags":[{"name":"@ddt","line":4}]}],"name":"src\/test\/java\/FeatureFiles\/karatefeature10.feature","description":"Karate test suite10\nData driven testing","id":"karate-test-suite10","keyword":"Feature","uri":"src\/test\/java\/FeatureFiles\/karatefeature10.feature"}]