[{"line":1,"elements":[{"line":3,"name":"calling test case","description":"","id":"calling-test-case","type":"scenario","keyword":"Scenario","steps":[{"name":"def result = call read('calledFeature.feature')","result":{"duration":1207659000,"status":"passed"},"match":{"location":"karate","arguments":[]},"keyword":"*","line":4},{"name":"\/Work\/GradleWorkspace\/src\/test\/java\/FeatureFiles\/calledFeature.feature","result":{"duration":0,"status":"passed"},"match":{"location":"karate","arguments":[]},"keyword":"","line":4},{"name":"url \"http:\/\/reqres.in\"","result":{"duration":4498100,"status":"passed"},"match":{"location":"karate","arguments":[]},"keyword":"> Given","line":5,"doc_string":{"content_type":"","value":"17:13:13.867 skipping bootstrap configuration: could not find or read file: classpath:karate-config.js","line":5}},{"name":"path \"\/api\/users?page=2\"","result":{"duration":1694000,"status":"passed"},"match":{"location":"karate","arguments":[]},"keyword":"> And","line":6},{"name":"method GET","result":{"duration":971093900,"status":"passed"},"match":{"location":"karate","arguments":[]},"keyword":"> When","line":7,"doc_string":{"content_type":"","value":"17:13:14.489 request:\n1 > GET http:\/\/reqres.in\/api\/users%3Fpage=2\n1 > Accept-Encoding: gzip,deflate\n1 > Connection: Keep-Alive\n1 > Host: reqres.in\n1 > User-Agent: Apache-HttpClient\/4.5.12 (Java\/1.8.0_251)\n\n17:13:14.683 response time in milliseconds: 192.63\n1 < 301\n1 < CF-RAY: 5fb4ca01ef93017e-SIN\n1 < Cache-Control: max-age=3600\n1 < Connection: keep-alive\n1 < Date: Wed, 02 Dec 2020 11:43:14 GMT\n1 < Expires: Wed, 02 Dec 2020 12:43:14 GMT\n1 < Location: https:\/\/reqres.in\/api\/users%3Fpage=2\n1 < NEL: {\"report_to\":\"cf-nel\",\"max_age\":604800}\n1 < Report-To: {\"endpoints\":[{\"url\":\"https:\\\/\\\/a.nel.cloudflare.com\\\/report?s=EjsSAWJrk1Vrf0pdpZwLg9gqH3ZjsJlSauiQRXo9bNrmjwoTtzRkQx4a2yMHCGpbZbDazFnCao5zPkdTTKbo5MQ5hIK5WK8GC8o%3D\"}],\"group\":\"cf-nel\",\"max_age\":604800}\n1 < Server: cloudflare\n1 < Transfer-Encoding: chunked\n1 < Vary: Accept-Encoding\n1 < cf-request-id: 06c4dc95330000017ef4bd7000000001\n\n17:13:14.690 request:\n2 > GET http:\/\/reqres.in\/api\/users%3Fpage=2\n2 > Accept-Encoding: gzip,deflate\n2 > Connection: Keep-Alive\n2 > Host: reqres.in\n2 > User-Agent: Apache-HttpClient\/4.5.12 (Java\/1.8.0_251)\n\n17:13:15.049 response time in milliseconds: 356.46\n2 < 200\n2 < Access-Control-Allow-Origin: *\n2 < Age: 3632\n2 < CF-Cache-Status: HIT\n2 < CF-RAY: 5fb4ca044f1618a3-SIN\n2 < Cache-Control: max-age=14400\n2 < Connection: keep-alive\n2 < Content-Type: application\/json; charset=utf-8\n2 < Date: Wed, 02 Dec 2020 11:43:14 GMT\n2 < Etag: W\/\"2c1-N6Rqerxquq2kgQhL51EiSg4x0R8\"\n2 < Expect-CT: max-age=604800, report-uri=\"https:\/\/report-uri.cloudflare.com\/cdn-cgi\/beacon\/expect-ct\"\n2 < NEL: {\"report_to\":\"cf-nel\",\"max_age\":604800}\n2 < Report-To: {\"endpoints\":[{\"url\":\"https:\\\/\\\/a.nel.cloudflare.com\\\/report?s=90rJ8M8C9ORX7qIggh9Hs9t9SHkKi5Ia6q3rMdrdkMuZAxGIGAnhXWjeQHN5FLcx12zYvN%2BEX1UhSliPLApPLNgzJf4aVYtj4kM%3D\"}],\"group\":\"cf-nel\",\"max_age\":604800}\n2 < Server: cloudflare\n2 < Set-Cookie: __cfduid=d3bdbe661b9ca6ffe84a56392c3bc29781606909394; expires=Fri, 01-Jan-21 11:43:14 GMT; path=\/; domain=.reqres.in; HttpOnly; SameSite=Lax; Secure\n2 < Transfer-Encoding: chunked\n2 < Vary: Accept-Encoding\n2 < Via: 1.1 vegur\n2 < X-Powered-By: Express\n2 < cf-request-id: 06c4dc96af000018a3078a5000000001\n{\"page\":1,\"per_page\":6,\"total\":12,\"total_pages\":2,\"data\":[{\"id\":1,\"name\":\"cerulean\",\"year\":2000,\"color\":\"#98B2D1\",\"pantone_value\":\"15-4020\"},{\"id\":2,\"name\":\"fuchsia rose\",\"year\":2001,\"color\":\"#C74375\",\"pantone_value\":\"17-2031\"},{\"id\":3,\"name\":\"true red\",\"year\":2002,\"color\":\"#BF1932\",\"pantone_value\":\"19-1664\"},{\"id\":4,\"name\":\"aqua sky\",\"year\":2003,\"color\":\"#7BC4C4\",\"pantone_value\":\"14-4811\"},{\"id\":5,\"name\":\"tigerlily\",\"year\":2004,\"color\":\"#E2583E\",\"pantone_value\":\"17-1456\"},{\"id\":6,\"name\":\"blue turquoise\",\"year\":2005,\"color\":\"#53B0AE\",\"pantone_value\":\"15-5217\"}],\"support\":{\"url\":\"https:\/\/reqres.in\/#support-heading\",\"text\":\"To keep ReqRes free, contributions towards server costs are appreciated!\"}}","line":7}},{"name":"status 200","result":{"duration":9700,"status":"passed"},"match":{"location":"karate","arguments":[]},"keyword":"> Then","line":8},{"name":"match response.page == 1","result":{"duration":11523600,"status":"passed"},"match":{"location":"karate","arguments":[]},"keyword":"> And","line":9},{"name":"print result","result":{"duration":994800,"status":"passed"},"match":{"location":"karate","arguments":[]},"keyword":"*","line":5,"doc_string":{"content_type":"","value":"17:13:15.098 [print] {\n  \"__arg\": null,\n  \"responseType\": \"json\",\n  \"responseHeaders\": {\n    \"Date\": [\n      \"Wed, 02 Dec 2020 11:43:14 GMT\"\n    ],\n    \"Content-Type\": [\n      \"application\/json; charset=utf-8\"\n    ],\n    \"Transfer-Encoding\": [\n      \"chunked\"\n    ],\n    \"Connection\": [\n      \"keep-alive\"\n    ],\n    \"Set-Cookie\": [\n      \"__cfduid=d3bdbe661b9ca6ffe84a56392c3bc29781606909394; expires=Fri, 01-Jan-21 11:43:14 GMT; path=\/; domain=.reqres.in; HttpOnly; SameSite=Lax; Secure\"\n    ],\n    \"X-Powered-By\": [\n      \"Express\"\n    ],\n    \"Access-Control-Allow-Origin\": [\n      \"*\"\n    ],\n    \"Etag\": [\n      \"W\/\\\"2c1-N6Rqerxquq2kgQhL51EiSg4x0R8\\\"\"\n    ],\n    \"Via\": [\n      \"1.1 vegur\"\n    ],\n    \"Cache-Control\": [\n      \"max-age=14400\"\n    ],\n    \"CF-Cache-Status\": [\n      \"HIT\"\n    ],\n    \"Age\": [\n      \"3632\"\n    ],\n    \"cf-request-id\": [\n      \"06c4dc96af000018a3078a5000000001\"\n    ],\n    \"Expect-CT\": [\n      \"max-age=604800, report-uri=\\\"https:\/\/report-uri.cloudflare.com\/cdn-cgi\/beacon\/expect-ct\\\"\"\n    ],\n    \"Report-To\": [\n      \"{\\\"endpoints\\\":[{\\\"url\\\":\\\"https:\\\\\/\\\\\/a.nel.cloudflare.com\\\\\/report?s=90rJ8M8C9ORX7qIggh9Hs9t9SHkKi5Ia6q3rMdrdkMuZAxGIGAnhXWjeQHN5FLcx12zYvN%2BEX1UhSliPLApPLNgzJf4aVYtj4kM%3D\\\"}],\\\"group\\\":\\\"cf-nel\\\",\\\"max_age\\\":604800}\"\n    ],\n    \"NEL\": [\n      \"{\\\"report_to\\\":\\\"cf-nel\\\",\\\"max_age\\\":604800}\"\n    ],\n    \"Vary\": [\n      \"Accept-Encoding\"\n    ],\n    \"Server\": [\n      \"cloudflare\"\n    ],\n    \"CF-RAY\": [\n      \"5fb4ca044f1618a3-SIN\"\n    ]\n  },\n  \"responseTime\": 356,\n  \"response\": {\n    \"per_page\": 6,\n    \"total\": 12,\n    \"data\": [\n      {\n        \"color\": \"#98B2D1\",\n        \"year\": 2000,\n        \"name\": \"cerulean\",\n        \"id\": 1,\n        \"pantone_value\": \"15-4020\"\n      },\n      {\n        \"color\": \"#C74375\",\n        \"year\": 2001,\n        \"name\": \"fuchsia rose\",\n        \"id\": 2,\n        \"pantone_value\": \"17-2031\"\n      },\n      {\n        \"color\": \"#BF1932\",\n        \"year\": 2002,\n        \"name\": \"true red\",\n        \"id\": 3,\n        \"pantone_value\": \"19-1664\"\n      },\n      {\n        \"color\": \"#7BC4C4\",\n        \"year\": 2003,\n        \"name\": \"aqua sky\",\n        \"id\": 4,\n        \"pantone_value\": \"14-4811\"\n      },\n      {\n        \"color\": \"#E2583E\",\n        \"year\": 2004,\n        \"name\": \"tigerlily\",\n        \"id\": 5,\n        \"pantone_value\": \"17-1456\"\n      },\n      {\n        \"color\": \"#53B0AE\",\n        \"year\": 2005,\n        \"name\": \"blue turquoise\",\n        \"id\": 6,\n        \"pantone_value\": \"15-5217\"\n      }\n    ],\n    \"page\": 1,\n    \"total_pages\": 2,\n    \"support\": {\n      \"text\": \"To keep ReqRes free, contributions towards server costs are appreciated!\",\n      \"url\": \"https:\/\/reqres.in\/#support-heading\"\n    }\n  },\n  \"requestTimeStamp\": 1606909394690,\n  \"responseStatus\": 200,\n  \"__loop\": -1,\n  \"responseCookies\": {\n    \"__cfduid\": {\n      \"name\": \"__cfduid\",\n      \"value\": \"d3bdbe661b9ca6ffe84a56392c3bc29781606909394\",\n      \"domain\": \"reqres.in\",\n      \"path\": \"\/\",\n      \"expires\": \"1609501394000\",\n      \"persistent\": \"true\",\n      \"secure\": \"true\"\n    }\n  }\n}","line":5}},{"name":"match result.responseType == \"json\"","result":{"duration":1958200,"status":"passed"},"match":{"location":"karate","arguments":[]},"keyword":"*","line":6},{"name":"match result.responseHeaders.Transfer-Encoding[0] == \"chunked\"","result":{"duration":3115800,"status":"passed"},"match":{"location":"karate","arguments":[]},"keyword":"*","line":7},{"name":"match result.response.data[0].name == \"cerulean\"","result":{"duration":2086900,"status":"passed"},"match":{"location":"karate","arguments":[]},"keyword":"*","line":8}]}],"name":"src\/test\/java\/FeatureFiles\/callingFeature.feature","description":"Calling test suite","id":"calling-test-suite","keyword":"Feature","uri":"src\/test\/java\/FeatureFiles\/callingFeature.feature"}]